…
```r
prsdnt <- inner_join(fips_codes, fontes$president_county_candidate, by = c("state", "county"))
```


```r
prsdnt %>%
  mutate(party = ifelse(party %in% c("REP", "DEM"), party, "Other"),
         colour = case_when(party == "REP" ~ clr$rouge, party == "DEM" ~ clr$bleu, TRUE ~ clr$neutre)) %>%
  group_by(fips) %>%
  mutate(new_total_votes = sum(total_votes))
```

```
## # A tibble: 19,493 x 10
## # Groups:   fips [3,043]
##    fips  abbrv state county candidate party total_votes won   colour
##    <chr> <chr> <chr> <chr>  <chr>     <chr>       <int> <chr> <chr> 
##  1 01001 AL    Alab… Autau… "Donald … REP         19838 True  #e32b…
##  2 01001 AL    Alab… Autau… "Joe Bid… DEM          7503 False #2b5c…
##  3 01001 AL    Alab… Autau… "Jo Jorg… Other         350 False #7777…
##  4 01001 AL    Alab… Autau… " Write-… Other          79 False #7777…
##  5 01003 AL    Alab… Baldw… "Donald … REP         83544 True  #e32b…
##  6 01003 AL    Alab… Baldw… "Joe Bid… DEM         24578 False #2b5c…
##  7 01003 AL    Alab… Baldw… "Jo Jorg… Other        1229 False #7777…
##  8 01003 AL    Alab… Baldw… " Write-… Other         328 False #7777…
##  9 01005 AL    Alab… Barbo… "Donald … REP          5622 True  #e32b…
## 10 01005 AL    Alab… Barbo… "Joe Bid… DEM          4816 False #2b5c…
## # … with 19,483 more rows, and 1 more variable: new_total_votes <int>
```
…
