…
```r
max(map_data$prc_chng)
```

```
## [1] 68.09211
```


```r
map_data
```

```
## # A tibble: 10,737 x 13
## # Groups:   Country [196]
##     Year Code  Country region7geoEU pop_total prc_chng tot_chng  long   lat
##    <dbl> <chr> <chr>   <fct>            <dbl>    <dbl>    <dbl> <dbl> <dbl>
##  1  2020 AFG   Afghan… South Asia    38900000     33.2  9700000  61.2  35.7
##  2  2020 AFG   Afghan… South Asia    38900000     33.2  9700000  62.2  35.3
##  3  2020 AFG   Afghan… South Asia    38900000     33.2  9700000  63.0  35.4
##  4  2020 AFG   Afghan… South Asia    38900000     33.2  9700000  63.2  35.9
##  5  2020 AFG   Afghan… South Asia    38900000     33.2  9700000  64.0  36.0
##  6  2020 AFG   Afghan… South Asia    38900000     33.2  9700000  64.5  36.3
##  7  2020 AFG   Afghan… South Asia    38900000     33.2  9700000  64.7  37.1
##  8  2020 AFG   Afghan… South Asia    38900000     33.2  9700000  65.6  37.3
##  9  2020 AFG   Afghan… South Asia    38900000     33.2  9700000  65.7  37.7
## 10  2020 AFG   Afghan… South Asia    38900000     33.2  9700000  66.2  37.4
## # … with 10,727 more rows, and 4 more variables: order <int>, hole <lgl>,
## #   piece <fct>, group <fct>
```
…
