…
```r
data$president_county_candidate %>%
	group_by(county) %>%
	summarise(n())
```

```
## # A tibble: 2,825 x 2
##    county        `n()`
##    <chr>         <int>
##  1 Abbeville         5
##  2 Abbot             6
##  3 Abington          5
##  4 Acadia Parish    13
##  5 Accomack          4
##  6 Acton            11
##  7 Acushnet          5
##  8 Acworth           4
##  9 Ada               7
## 10 Adair            28
## # … with 2,815 more rows
```
…
